<?xml version="1.0" standalone="no"?>
<!DOCTYPE svg PUBLIC "-//W3C//DTD SVG 20010904//EN"
 "http://www.w3.org/TR/2001/REC-SVG-20010904/DTD/svg10.dtd">
<svg version="1.0" xmlns="http://www.w3.org/2000/svg"
 width="260.000000pt" height="260.000000pt" viewBox="0 0 260.000000 260.000000"
 preserveAspectRatio="xMidYMid meet">
<metadata>
Created by potrace 1.11, written by Peter Selinger 2001-2013
</metadata>
<g transform="translate(0.000000,260.000000) scale(0.100000,-0.100000)"
fill="#000000" stroke="none">
<path d="M458 2490 c-9 -6 -28 -47 -43 -93 -14 -45 -52 -163 -85 -262 -32 -99
-109 -335 -170 -525 -61 -190 -122 -378 -136 -418 -27 -81 -29 -104 -12 -135
16 -31 7 -24 323 -253 160 -116 440 -319 623 -452 183 -133 337 -242 342 -242
8 0 338 235 442 314 15 12 46 35 70 52 587 425 756 550 770 572 22 33 22 55 4
113 -8 24 -87 265 -175 534 -88 270 -180 554 -206 632 -45 139 -63 173 -90
173 -36 0 -56 -42 -128 -265 -40 -126 -105 -326 -143 -442 l-69 -213 -477 0
-476 0 -16 48 c-123 386 -271 832 -282 850 -15 23 -38 28 -66 12z"/>
</g>
</svg>
